Introduction to R • learnSEM
…
#you can create complex rules
penguins[penguins$bill_length_mm > 54 & penguins$bill_depth_mm > 17, ]
#> # A tibble: 5 × 8
#>   species   island bill_length_mm bill_depth_mm flipper_length_mm body_mass_g
#>   <fct>     <fct>           <dbl>         <dbl>             <int>       <int>
#> 1 NA        NA               NA            NA                  NA          NA
#> 2 NA        NA               NA            NA                  NA          NA
#> 3 Chinstrap Dream            58            17.8               181        3700
#> 4 Chinstrap Dream            54.2          20.8               201        4300
#> 5 Chinstrap Dream            55.8          19.8               207        4000
#> # ℹ 2 more variables: sex <fct>, year <int>
#you can do all BUT
penguins[ , -1]
#> # A tibble: 344 × 7
#>    island bill_length_mm bill_depth_mm flipper_length_mm body_mass_g sex    year
#>    <fct>           <dbl>         <dbl>             <int>       <int> <fct> <int>
#>  1 Torge…           39.1          18.7               181        3750 male   2007
#>  2 Torge…           39.5          17.4               186        3800 fema…  2007
#>  3 Torge…           40.3          18                 195        3250 fema…  2007
#>  4 Torge…           NA            NA                  NA          NA NA     2007
#>  5 Torge…           36.7          19.3               193        3450 fema…  2007
#>  6 Torge…           39.3          20.6               190        3650 male   2007
#>  7 Torge…           38.9          17.8               181        3625 fema…  2007
#>  8 Torge…           39.2          19.6               195        4675 male   2007
#>  9 Torge…           34.1          18.1               193        3475 NA     2007
#> 10 Torge…           42            20.2               190        4250 NA     2007
#> # ℹ 334 more rows
#grab a few columns by name
vars <- c("bill_length_mm", "sex")
penguins[ , vars]
#> # A tibble: 344 × 2
#>    bill_length_mm sex   
#>             <dbl> <fct> 
#>  1           39.1 male  
#>  2           39.5 female
#>  3           40.3 female
#>  4           NA   NA    
#>  5           36.7 female
#>  6           39.3 male  
#>  7           38.9 female
#>  8           39.2 male  
#>  9           34.1 NA    
#> 10           42   NA    
#> # ℹ 334 more rows
…
